{
    "language": "zh",
    "plugins": [ "theme-rtd", "replace" ],
    "pluginsConfig": {
        "replace": {
            "substitutes": [
                {"pattern": "(!\\[[^\\]]*]\\()\/assets", "flags": "g", "substitute": "$1../../assets"}
            ]
        }
    }
}
